:020000040000FA
:1000000018F09FE518F09FE518F09FE518F09FE5C0
:1000100018F09FE50000A0E1F0FF1FE518F09FE554
:1000200058000000400000004400000048000000AC
:100030004C000000000000005000000054000000D0
:10004000FEFFFFEAFEFFFFEAFEFFFFEAFEFFFFEA18
:10005000FEFFFFEAFEFFFFEAA0009FE5AA10A0E373
:100060005520A0E32430A0E3043080E50130A0E374
:10007000003080E50C1080E50C2080E5083090E52C
:10008000013B13E2FCFFFF0A0330A0E3003080E5F0
:100090000C1080E50C2080E564009FE50410A0E3CF
:1000A000041080E50210A0E3001080E554009FE5F5
:1000B000DBF021E300D0A0E1000040E2D7F021E333
:1000C00000D0A0E1000040E2D1F021E300D0A0E1A7
:1000D000000040E2D2F021E300D0A0E1800040E245
:1000E000D3F021E300D0A0E1080040E210F021E3CA
:1000F00000D0A0E101AB4DE20C009FE510FF2FE125
:1001000080C01FE000C01FE080050040100100001B
:10011000000000EB2E0000EB2C008FE2000C90E8BA
:1001200000A08AE000B08BE001704AE20B005AE1C7
:100130000000001A260000EB0F00BAE818E04FE2BA
:10014000010013E303F0471013FF2FE18C110000AF
:10015000AC110000102052E27800B0287800A128ED
:10016000FBFFFF8A822EB0E13000B0283000A128CA
:1001700000409045004081451EFF2FE10030B0E374
:100180000040B0E30050B0E30060B0E3102052E262
:100190007800A128FCFFFF8A822EB0E13000A12860
:1001A000003081451EFF2FE101C08FE21CFF2FE1CF
:1001B0001FB5059886460FBC009C02B07047000032
:1001C00001C08FE21CFF2FE130B47546AE4630BC53
:1001D000704700000F0400EB0210A0E1F1FFFFEBFD
:1001E0001CC09FE50FC08CE001001CE30DE08F12E6
:1001F0000FE0A0011CFF2FE101C08FE21CFF2FE1E7
:1002000001F03AF8500000007847C04603002DE99D
:10021000EAFFFFEB0300BDE81C0400EB0C009FE5C8
:100220000C109FE504209FE508309FE51EFF2FE19D
:10023000F8000040F8040040F8000040960DA0E3EC
:10024000D50200EBB8019FE55D0200EB6B0000EA10
:10025000A40200EB010050E32C00001AA4019FE56A
:10026000A30200EB9C019FE5240200EB98019FE5AF
:100270000000D0E5000050E3210000DA8C019FE58A
:100280000000D0E5000050E31D00001A7C019FE54E
:100290000400D0E5000050E30E00000A010050E326
:1002A0000200000A020050E30F00001A040000EAF6
:1002B0000000A0E10100A0E354119FE50000C1E5AA
:1002C0000E0000EA0000A0E10100A0E344119FE558
:1002D0000000C1E5090000EA0000A0E10100A0E380
:1002E00034119FE50000C1E5040000EA0000A0E130
:1002F0000100A0E324119FE50000C1E50000A0E19A
:10030000020000EA0100A0E310119FE50000C1E532
:10031000420200EB000050E33800001AF0009FE5B5
:100320000000D0E5010050E30600001A0000A0E341
:10033000DC109FE50000C1E5D0109FE50C00D1E581
:10034000D70000EB2D0000EAC8009FE50000D0E5D3
:10035000010050E30F00001A0000A0E3B4109FE575
:100360000000C1E598109FE5B4008FE2000300EBA8
:10037000FB0000EB0040A0E184109FE5250300EBAB
:100380007C109FE5A0008FE2310300EB70009FE539
:100390000B0200EB190000EA7C009FE50000D0E5AD
:1003A000010050E30600001A0000A0E368109FE57A
:1003B0000000C1E554109FE50C0091E5880000EBBA
:1003C0000E0000EA54009FE50000D0E5010050E374
:1003D0000A00001A0000A0E340109FE50000C1E5FC
:1003E0001C109FE544008FE2E10200EB10109FE536
:1003F00034008FE2160300EB04009FE5F00100EBF0
:1004000092FFFFEA380000404800004034000040FE
:100410005800004000000040010000400200004081
:1004200003000040706F7274676574000A0000007A
:10043000756E6B6F6E6F776E636F6D6D616E64005E
:1004400004002DE5D8049FE5000090E5550C80E3FD
:10045000CC149FE5000081E50000DDE58001A0E10E
:100460000110DDE5010280E10210DDE5010380E11C
:10047000200080E3AC149FE5B000C1E10300DDE59E
:100480000C00C1E504D08DE21EFF2FE1FF012DE934
:100490000030A0E300C0A0E30040A0E30010A0E310
:1004A0000020A0E30000A0E30060A0E30050A0E370
:1004B0000C70DDE50D80DDE5087087E0FF3007E2B8
:1004C0000470DDE50580DDE5087087E0FFC007E228
:1004D0000C0053E1010000DA0340A0E1000000EA53
:1004E0000C40A0E10000A0E3310000EA0570DDE56A
:1004F000000057E1010000CA0170A0E3000000EA1B
:100500000070A0E30480DDE5020058E1010000DA9C
:100510000180A0E3000000EA0080A0E3080017E1EA
:100520000400000A00709DE50250D7E7017082E2E6
:10053000FF2007E2000000EA0050A0E3E4739FE51B
:10054000B850C7E10000A0E1D8739FE50470D7E57B
:10055000800017E3FBFFFF0AC8739FE5B870D7E17F
:10056000FF6007E20D70DDE5000057E1010000CA01
:100570000170A0E3000000EA0070A0E30C80DDE55C
:10058000010058E1010000DA0180A0E3000000EA68
:100590000080A0E3080017E10300000A08709DE551
:1005A0000160C7E7017081E2FF1007E2017080E29D
:1005B000FF0007E2040050E1CBFFFFBAFF01BDE8F6
:1005C0001EFF2FE160039FE5080090E5010B80E32B
:1005D00054139FE5080081E5010BA0E3040081E5C9
:1005E0001EFF2FE110402DE920D04DE20040A0E198
:1005F00038039FE5000090E50C008DE508008DE2D2
:1006000010008DE50200A0E31400CDE50000A0E39A
:100610001500CDE504008DE218008DE50000A0E393
:100620001C00CDE51D00CDE50406A0E100139FE50B
:100630001C0300EB0040A0E10C009DE57FFFFFEBF9
:10064000DFFFFFEB3000A0E3240480E10800CDE5EC
:100650000940CDE5010BA0E3CC129FE50C0081E53C
:1006600010308DE20F0093E887FFFFEB010BA0E352
:10067000B4129FE5040081E520D08DE21040BDE872
:100680001EFF2FE1A0029FE5080090E5020B80E32A
:1006900094129FE5080081E5020BA0E3040081E5C8
:1006A0001EFF2FE110402DE91CD04DE20040A0E1DB
:1006B00080029FE5000090E518008DE504008DE2C2
:1006C00008008DE50300A0E30C00CDE50000A0E3E9
:1006D0000D00CDE510D08DE51400CDE51500CDE57C
:1006E0004000A0E30400CDE50000A0E30500CDE557
:1006F0000600CDE518009DE550FFFFEBE0FFFFEBA6
:10070000020BA0E320129FE50C0081E508308DE28A
:100710000F0093E85CFFFFEB020BA0E308129FE5DC
:10072000040081E54000A0E30400CDE50900A0E35A
:100730000500CDE50640CDE5020BA0E30C0081E508
:1007400008308DE20F0093E84FFFFFEB020BA0E3B0
:10075000D4119FE5040081E51CD08DE21040BDE876
:100760001EFF2FE104E02DE51CD04DE2C8019FE5FE
:10077000000090E518008DE504008DE208008DE58D
:100780000300A0E30C00CDE50000A0E30D00CDE5E3
:1007900010D08DE51400CDE51500CDE54000A0E3B7
:1007A0000400CDE50000A0E30500CDE50100A0E3D5
:1007B0000600CDE518009DE520FFFFEBB0FFFFEB45
:1007C000020BA0E360119FE50C0081E508308DE28B
:1007D0000F0093E82CFFFFEB020BA0E348119FE50D
:1007E000040081E504008DE208008DE50200A0E32D
:1007F0000C00CDE50000A0E30D00CDE510D08DE5A7
:100800000100A0E31400CDE50200A0E31500CDE552
:100810004100A0E30400CDE50900A0E30500CDE51B
:10082000020BA0E30C0081E508308DE20F0093E895
:1008300015FFFFEB020BA0E3EC109FE5040081E540
:100840000000DDE51CD08DE204E09DE41EFF2FE1F9
:1008500010402DE90040A0E10406A0E1D0109FE582
:10086000900200EB0040A0E1B4009FE5000090E59D
:10087000550C80E3A8109FE5000081E5010941E2E5
:10088000080090E5010B80E3011941E2080081E5D1
:10089000020941E2B000D0E1200080E3021941E208
:1008A000B000C1E10100A0E1B000D0E15800C0E318
:1008B000B000C1E10800A0E30C00C1E5010BA0E31A
:1008C000801281E1040081E50C0081E53000A0E3A5
:1008D000240480E1FF08C0E3021941E2B800C1E14D
:1008E0000000A0E13C009FE50400D0E5800010E39B
:1008F000FBFFFF0A2C109FE5B840C1E10000A0E11A
:1009000020009FE50400D0E5800010E3FBFFFF0A14
:10091000010BA0E310109FE5040081E51040BDE845
:100920001EFF2FE100C002E0000002E0008002E0B4
:10093000CC120000E40C0000D0120000D412000021
:1009400030002DE90020A0E101C0A0E30000A0E3F9
:10095000D4419FE50000C4E50030A0E30000A0E121
:100960000310D2E7C0019FE50000D0E5030050E38B
:100970000100000A000051E30300001AA8019FE5EE
:100980000000D0E53000BDE81EFF2FE100005CE371
:100990000200000A01005CE31900001A060000EAE8
:1009A0000000A0E1200051E30100001A01C0A0E313
:1009B000000000EA00C0A0E3110000EA0000A0E18E
:1009C000200051E30C00000A00C0A0E3030082E015
:1009D00058419FE550519FE50050D5E5854184E0A1
:1009E000040084E540019FE50000D0E5010080E2BD
:1009F00034419FE50000C4E5000000EA01C0A0E327
:100A00000000A0E10000A0E1010083E2FF3000E26D
:100A1000D2FFFFEA70402DE90060A0E10150A0E1A3
:100A20000040A0E30E0000EA04019FE5040280E01C
:100A3000011080E20600A0E1000100EB010050E39C
:100A40000500001AE8009FE50402D0E70000C5E5B4
:100A50000100A0E37040BDE81EFF2FE1010084E229
:100A6000FF4000E2030054E3EEFFFFBA0000A0E302
:100A7000F7FFFFEA38402DE90050A0E3190000EA33
:100A8000A8009FE5854180E00D10A0E1040094E5F9
:100A9000DFFFFFEB010050E30400001A0000A0E3B9
:100AA0000000C4E500009DE5040084E50B0000EAB9
:100AB0000D10A0E1040094E5F10000EB010050E30B
:100AC0000400001A0100A0E30000C4E500009DE559
:100AD000040084E5010000EA0200A0E30000C4E590
:100AE000010085E2FF5000E23C009FE50000D0E5F8
:100AF000000055E1E1FFFFBA3840BDE81EFF2FE1DD
:100B000010402DE90040A0E10400A0E18BFFFFEBC5
:100B10000020A0E32010A0E30400A0E1070100EB07
:100B2000D3FFFFEB1040BDE81EFF2FE13400004073
:100B30005800004004000040EC129FE51110D1E580
:100B4000000051E31400001A0110A0E3D8229FE531
:100B50001010C2E5001082E21210D1E50110D2E7B8
:100B6000000051E30300001A0D00A0E30110A0E310
:100B70001110C2E5070000EA0000A0E1A8129FE5FD
:100B80001210D1E5A0229FE50100D2E70010A0E3FA
:100B90001110C2E50000A0E1030000EA0000A0E39C
:100BA0000010A0E380229FE51010C2E578129FE5B7
:100BB0001210D1E5011081E26C229FE51210C2E50E
:100BC0001EFF2FE110402DE90040A0E158129FE5E3
:100BD0000400A0E1E60000EB0000A0E348129FE55E
:100BE0001200C1E51100C1E50100A0E31000C1E55C
:100BF000000081E21200D0E50000D1E72C129FE551
:100C00000000C1E520029FE51200D0E5010080E26E
:100C100014129FE51200C1E51040BDE81EFF2FE150
:100C200004029FE51000D0E51EFF2FE10000A0E3C5
:100C3000FC119FE51000C1E51EFF2FE10D0050E300
:100C40001200001A0000A0E3E4119FE51010D1E5A6
:100C5000DC219FE50100C2E7001082E21010D1E51F
:100C6000100051E3020000AA0110A0E31110C2E538
:100C7000020000EA0210A0E3B4219FE51110C2E5D2
:100C80000010A0E3A8219FE51010C2E5130000EAC0
:100C90000000A0E198119FE51010D1E50F0051E38D
:100CA000030000BA0210A0E384219FE51110C2E501
:100CB000090000EA78119FE51010D1E570219FE549
:100CC0000100C2E7001082E21010D1E5011081E2BC
:100CD0001010C2E50010A0E31110C2E50000A0E171
:100CE0000000A0E11EFF2FE144019FE51100D0E5C7
:100CF0001EFF2FE10010A0E10000A0E3040000EAC5
:100D00002C219FE50020D2E70020C1E7012080E2EE
:100D1000FF0002E218219FE50020D2E7000052E325
:100D2000F6FFFF1A08219FE50020D2E70020C1E767
:100D30000020A0E3F8309FE51120C3E51EFF2FE15E
:100D40000F502DE9E4009FE50830D0E50F0003E2E5
:100D5000040050E30200001AD0109FE50000D1E526
:100D6000B5FFFFEB0F0003E2020050E30600001A9C
:100D7000B4009FE51000D0E5010050E30200001A26
:100D80006CFFFFEBA4109FE50000C1E50000A0E3AD
:100D9000D00F00E50F50BDE804F05EE210402DE9F1
:100DA0000040A0E18C009FE5000090E5050080E395
:100DB00080109FE5000081E5020841E20C00D0E5CB
:100DC000830080E3021841E20C00C1E50410A0E1B9
:100DD00064009FE5330100EB50109FE50000C1E582
:100DE0000100A0E10C00D0E58000C0E30C00C1E5EB
:100DF0000100A0E10400D0E5030080E30400C1E5A8
:100E0000C8004FE20010A0E3F80E01E52600A0E3C1
:100E1000F80D01E50000A0E3F00F10E5400080E3CD
:100E2000F00F01E51040BDE81EFF2FE1700000400B
:100E300000C000E08300004000C002E01C4E0E0035
:100E40000020A0E10130A0E10010A0E3060000EACC
:100E50000100D2E7000050E30100001A0100A0E306
:100E60001EFF2FE1010081E2FF1000E20100D2E746
:100E700001C0D3E70C0050E1F4FFFF0A0000A0E33B
:100E8000F6FFFFEA04402DE50020A0E10140A0E1CB
:100E900000C0A0E30000D2E5300050E30500001AD6
:100EA0000100D2E5780050E30200001A0200D2E50A
:100EB000000050E30200001A0000A0E304409DE49B
:100EC0001EFF2FE10230A0E3160000EA060053E304
:100ED000010000DA0000A0E3F7FFFFEA0CC2A0E186
:100EE000300051E3040000BA390051E3020000CAA7
:100EF000300041E200C08CE1080000EA410051E30B
:100F0000040000BA460051E3020000CA370041E283
:100F100000C08CE1010000EA0000A0E3E6FFFFEA68
:100F2000010083E2FF3000E20310D2E7000051E34A
:100F3000E5FFFF1A00C084E50100A0E3DEFFFFEA41
:100F40000130A0E10010A0E3050000EA01C0D0E7F5
:100F500003005CE10000001A0120C0E701C081E24B
:100F6000FF100CE201C0D0E700005CE3F6FFFF1ABF
:100F70001EFF2FE10020A0E10000A0E3030000EA33
:100F80000030D2E70030C1E7013080E2FF0003E229
:100F90000030D2E7000053E3F8FFFF1A0030D2E739
:100FA0000030C1E71EFF2FE104402DE50030A0E135
:100FB00030C0A0E300C0C1E578C0A0E301C0C1E536
:100FC00000C0A0E306C0C1E50000A0E30D0000EAF8
:100FD00000C1A0E133CCA0E10F200CE20A0052E3F3
:100FE000030000AA30C082E2054060E204C0C1E70D
:100FF000020000EA37C082E2054060E204C0C1E7B7
:1010000001C080E2FF000CE2040050E3EFFFFFBAF2
:1010100004409DE41EFF2FE170402DE90060A0E137
:101020000140A0E10050A0E3010000EA010085E2D8
:10103000FF5000E20500D4E7000050E3FAFFFF1A7A
:10104000051084E00600A0E1D6FFFFEB7040BDE88C
:101050001EFF2FE170402DE90060A0E10140A0E1FA
:101060000050A0E3010000EA010085E2FF5000E229
:101070000500D4E7000050E3FAFFFF1A051084E0F2
:101080000600A0E1BAFFFFEB7040BDE81EFF2FE1B4
:10109000013090E12100004A0020B0E3A03071E06F
:1010A0001A00003A203271E00F00003A203471E05B
:1010B0000100003A00C0A0E3200000EAA03371E084
:1010C000810340200220B2E0203371E00103402080
:1010D0000220B2E0A03271E0810240200220B2E0A2
:1010E000203271E0010240200220B2E0A03171E024
:1010F000810140200220B2E0203171E00101402056
:101100000220B2E0A03071E0810040200220B2E075
:10111000011050E00010A0310200A2E01EFF2FE1FC
:10112000022111E20010614240C032E00000602262
:10113000203271E01D00003A203471E00F00003AC7
:101140000113A0E1203471E03F2382E30B00003A59
:101150000113A0E1203471E03F2682E30700003A4A
:101160000113A0E1203471E03F2982E30113A021A3
:101170003F2C8223003071E21D00002A2113A021A0
:10118000A03371E0810340200220B2E0203371E0FF
:10119000010340200220B2E0A03271E08102402031
:1011A0000220B2E0203271E0010240200220B2E0D1
:1011B000A03171E0810140200220B2E0203171E0D5
:1011C000010140200220B2E0EBFFFF2AA03071E0D5
:1011D000810040200220B2E0011050E00010A03158
:1011E0000200A2E0CCCFB0E100006042001061221A
:1011F0001EFF2FE1CCCFB0E10000604201402DE99D
:101200000000B0E30000A0E10240BDE81EFF2FE1B6
:1012100070477047704700000E50A0E1180000EBC7
:1012200005E0A0E10050B0E10D10A0E10A30A0E11E
:101230000700C0E300D0A0E160D08DE220402DE99E
:10124000F5FBFFEB2040BDE80060A0E30070A0E3E9
:101250000080A0E300B0A0E30710C1E305C0A0E157
:10126000C009ACE8C009ACE8C009ACE8C009ACE80A
:1012700001D0A0E11EFF2FE10400C046C0462000BF
:10128000FEF7C2FF00009FE51EFF2FE1980000401F
:1012900001C08FE21CFF2FE101491820ABDFFEE700
:1012A000260002001EFF2FE10020B0E3203171E094
:1012B00093FFFF3AA03271E088FFFF3A203471E0DB
:1012C0007DFFFF3A00C0A0E39CFFFFEA000000089A
:1012D0000000000800000008F812000000000040B4
:1012E00038000000540100003013000038000040B6
:1012F000480500007C0100000000000001706F72D2
:1013000074736574000000000000000002706F72CA
:1013100074676574000000000000000000646163F1
:101320007365740000000000000000000000000071
:0400000500000110E6
:00000001FF
